<?xml version="1.0"?>
<svg xmlns="http://www.w3.org/2000/svg" xmlns:xlink="http://www.w3.org/1999/xlink" version="1.1" id="Capa_1" x="0px" y="0px" width="512px" height="512px" viewBox="0 0 495.801 495.801" style="enable-background:new 0 0 495.801 495.801;" xml:space="preserve" class=""><g><g>
	<g>
		<path d="M415.431,28.666l-0.56-0.273c0.521,27.735,4.663,151.591,36.79,81.455    C451.662,109.849,427.917,138.243,415.431,28.666z" data-original="#090909" class="active-path" data-old_color="#6c6060" fill="#6c6060"/>
		<path d="M451.374,0H190.342c-11.694,0-21.157,9.52-21.157,21.171v261.06c0,4.429,1.448,8.53,3.829,11.979    c-13.02,7.44-27.011,11.049-42.315,11.049h-0.014c-24.946,0-54.598-8.699-93.302-27.299l-13.309-6.4l-0.778,14.715    c-0.069,1.366-1.491,33.973,23.509,60.342c22.087,23.248,56.758,34.027,103.791,31.838c-0.327,22.976,2.544,75.057,32.416,108.977    l7.317,8.37l7.386-8.265c1.189-1.365,28.993-33.425,52-141.905c23.223-9.409,82.317-42.287,82.317-42.287h119.342    c11.679,0,21.169-9.465,21.169-21.115V21.171C472.543,9.519,463.052,0,451.374,0z M282.465,37.746l53.585-5.034    c-29.321,27.903-58.59,99.787-58.59,99.787l-1.105-3.719l-0.356-1.15l-0.151-1.258l-2.149-17.069l-2.462-19.476l-0.244-1.914    l0.26-1.916l2.298-16.958l-1.899-15.155l-1.614-12.801L282.465,37.746z M465.159,122.269    c-8.451,7.056-23.168,25.001-27.642,37.583c-38.921,108.976-198.214,168.771-199.788,169.37l-5.1,1.914l-1.082,5.306    c-15.071,73.198-32.318,110.948-41.657,127.413c-23.922-38.184-19.259-94.423-19.203-95.078l1.04-11.655l-11.679,0.984    c-45.748,3.94-79.283-4.484-98.758-24.836c-9.547-9.956-14.142-21.28-16.344-30.198c33.919,14.826,61.477,21.831,85.739,21.831    h0.014c61.08,0,103.243-43.93,141.004-146.888c6.65-18.164,14.474-35.67,23.483-52.519c0,0,52.303-116.689,105.023-119.589    c21.911-0.82,28.473,1.203,28.473,1.203c22.335,3.557,36.478,17.562,36.478,39.062V122.269z" data-original="#090909" class="active-path" data-old_color="#6c6060" fill="#6c6060"/>
	</g>
</g></g> </svg>
